{
    "results": [
        {
            "popularity": 21.977,
            "vote_count": 179,
            "video": false,
            "poster_path": "/9mZGa8EzviW1Q5ooq3k6M0IX2co.jpg",
            "id": 438674,
            "adult": false,
            "backdrop_path": "/crRdazoirgBIB50ScJns8KMsZNM.jpg",
            "original_language": "en",
            "original_title": "Dragged Across Concrete",
            "genre_ids": [
                28,
                80,
                53
            ],
            "title": "Dragged Across Concrete",
            "vote_average": 6.6,
            "overview": "Two policemen, one an old-timer, the other his volatile younger partner, find themselves suspended when a video of their strong-arm tactics becomes the media's cause du jour. Low on cash and with no other options, these two embittered soldiers descend into the criminal underworld to gain their just due, but instead find far more than they wanted awaiting them in the shadows.",
            "release_date": "2019-03-22"
        },
        {
            "popularity": 26.988,
            "vote_count": 1296,
            "video": false,
            "poster_path": "/kreTuJBkUjVWePRfhHZuYfhNE1T.jpg",
            "id": 527641,
            "adult": false,
            "backdrop_path": "/d7wa3VpUpKDQ7GG9EMw8zSJCFoI.jpg",
            "original_language": "en",
            "original_title": "Five Feet Apart",
            "genre_ids": [
                18,
                10749
            ],
            "title": "Five Feet Apart",
            "vote_average": 8.2,
            "overview": "Seventeen-year-old Stella spends most of her time in the hospital as a cystic fibrosis patient. Her life is full of routines, boundaries and self-control -- all of which get put to the test when she meets Will, an impossibly charming teen who has the same illness. There's an instant flirtation, though restrictions dictate that they must maintain a safe distance between them. As their connection intensifies, so does the temptation to throw the rules out the window and embrace that attraction.",
            "release_date": "2019-03-15"
        },
        {
            "popularity": 21.844,
            "vote_count": 107,
            "video": false,
            "poster_path": "/4pzN52wxBZ05EXBdoii1kqoIoD4.jpg",
            "id": 522518,
            "adult": false,
            "backdrop_path": "/71hIkBtvXhvRVh6HdE28CXaNNRz.jpg",
            "original_language": "en",
            "original_title": "A Dog's Journey",
            "genre_ids": [
                12,
                14,
                10751
            ],
            "title": "A Dog's Journey",
            "vote_average": 7.1,
            "overview": "A dog finds the meaning of his own existence through the lives of the humans he meets.",
            "release_date": "2019-05-17"
        },
        {
            "popularity": 9.638,
            "id": 582881,
            "video": false,
            "vote_count": 3,
            "vote_average": 7,
            "title": "The Swallows of Kabul",
            "release_date": "2019-09-04",
            "original_language": "fr",
            "original_title": "Les hirondelles de Kaboul",
            "genre_ids": [
                16
            ],
            "backdrop_path": "/dkntkN5Jv9ACp9CPYydbFhrLJt2.jpg",
            "adult": false,
            "overview": "Summer 1998 - Kabul under Taliban rule. Zunaira and Mohsen are young and in love. Despite the daily violence and misery, they hope for a better future. One day, a foolish gesture causes life to take an irrevocable turn.",
            "poster_path": "/bUMbdaA26GebiXttKMZupnmDGpO.jpg"
        },
        {
            "popularity": 22.608,
            "vote_count": 2,
            "video": false,
            "poster_path": "/vS6TCG4HiUSCyX30f5wDGQDt1k3.jpg",
            "id": 428045,
            "adult": false,
            "backdrop_path": "/6z2RYYKl2AAfVkOse7Uxh8TXHJa.jpg",
            "original_language": "ru",
            "original_title": "Тайна Печати дракона",
            "genre_ids": [
                12,
                14
            ],
            "title": "The Mystery of the Dragon’s Seal",
            "vote_average": 10,
            "overview": "The Russian Czar Peter the Great commissions Jonathan Green, an English traveller, to map the Far East territories of the Russian Empire. Green sets off on yet another long journey, full of unbelievable adventures, which eventually leads him to China. On his way, the famous cartographer makes breath-taking discoveries, meets mysterious creatures, Chinese princesses, deadly masters of oriental martial arts, and even Lun Van, the King of Dragons, himself. What could be more perilous than looking into the eyes of Viy? Only meeting him again… What will prevail this time — the unflinching scepticism of the scientist or ancient black magic, which has already gained influence over the Far East Lands?",
            "release_date": "2019-08-16"
        },
        {
            "popularity": 24.682,
            "vote_count": 407,
            "video": false,
            "poster_path": "/1rjaRIAqFPQNnMtqSMLtg0VEABi.jpg",
            "id": 515195,
            "adult": false,
            "backdrop_path": "/t9xAqZc37OgVkojyQwT3UCanZJk.jpg",
            "original_language": "en",
            "original_title": "Yesterday",
            "genre_ids": [
                35,
                14,
                10402,
                10749
            ],
            "title": "Yesterday",
            "vote_average": 6.7,
            "overview": "Jack Malik is a struggling singer-songwriter in an English seaside town whose dreams of fame are rapidly fading, despite the fierce devotion and support of his childhood best friend, Ellie. After a freak bus accident during a mysterious global blackout, Jack wakes up to discover that he's the only person on Earth who can remember The Beatles.",
            "release_date": "2019-06-28"
        },
        {
            "popularity": 16.734,
            "vote_count": 0,
            "video": false,
            "poster_path": "/iK0Q7VWxHsXU1uMzpkf3VjAd6yE.jpg",
            "id": 431580,
            "adult": false,
            "backdrop_path": "/iSrw6tCzdsM8sNvSAqG3RrjcRKe.jpg",
            "original_language": "en",
            "original_title": "Abominable",
            "genre_ids": [
                12,
                16,
                35,
                10751
            ],
            "title": "Abominable",
            "vote_average": 0,
            "overview": "Trekking the 3000-mile journey from Shanghai to the Himalayan snowscapes, a group of misfits encounter a young Yeti named Everest, and they set off to reunite the magical creature with his family on the mountain of his namesake.",
            "release_date": "2019-09-29"
        },
        {
            "popularity": 22.852,
            "vote_count": 143,
            "video": false,
            "poster_path": "/t58dx7JIgchr9If5uxn3NmHaHoS.jpg",
            "id": 514439,
            "adult": false,
            "backdrop_path": "/2kR79WCmVIzFYQWH9X3LqcehvC2.jpg",
            "original_language": "en",
            "original_title": "Breakthrough",
            "genre_ids": [
                18
            ],
            "title": "Breakthrough",
            "vote_average": 7.1,
            "overview": "When he was 14, Smith drowned in Lake St. Louis and was dead for nearly an hour. According to reports at the time, CPR was performed 27 minutes to no avail. Then the youth's mother, Joyce Smith, entered the room, praying loudly. Suddenly, there was a pulse, and Smith came around.",
            "release_date": "2019-04-18"
        },
        {
            "popularity": 15.172,
            "id": 426426,
            "video": false,
            "vote_count": 2042,
            "vote_average": 7.8,
            "title": "Roma",
            "release_date": "2018-11-21",
            "original_language": "es",
            "original_title": "Roma",
            "genre_ids": [
                18
            ],
            "backdrop_path": "/zl9uqCl5iUSb50sTk2BPzw6bJnU.jpg",
            "adult": false,
            "overview": "In 1970s Mexico City, two domestic workers help a mother of four while her husband is away for an extended period of time.",
            "poster_path": "/dtIIyQyALk57ko5bjac7hi01YQ.jpg"
        },
        {
            "popularity": 18.004,
            "vote_count": 0,
            "video": false,
            "poster_path": "/k3e3y2WuoklYOIdsX90qITWsIU1.jpg",
            "id": 535544,
            "adult": false,
            "backdrop_path": "/mFcfdnAYaQQhXhKcoITiDYtuO5b.jpg",
            "original_language": "en",
            "original_title": "Downton Abbey",
            "genre_ids": [
                18
            ],
            "title": "Downton Abbey",
            "vote_average": 0,
            "overview": "The continuing story of the Crawley family, wealthy owners of a large estate in the English countryside in the early 20th century.",
            "release_date": "2019-09-20"
        },
        {
            "popularity": 23.09,
            "vote_count": 0,
            "video": false,
            "poster_path": "/f5W44dZGHZ2QQ6YDJd3vL74gFWy.jpg",
            "id": 540901,
            "adult": false,
            "backdrop_path": "/mBBJ3N3an8FLkp0ZpGgIJwHKhBP.jpg",
            "original_language": "en",
            "original_title": "Hustlers",
            "genre_ids": [
                35
            ],
            "title": "Hustlers",
            "vote_average": 0,
            "overview": "Inspired by Jessica Pressler's \"The Hustlers at Scores,\" which details a crew of savvy former strip club employees who band together to turn the tables on their Wall Street clients.",
            "release_date": "2019-09-13"
        },
        {
            "popularity": 18.237,
            "vote_count": 44,
            "video": false,
            "poster_path": "/zNoOMybwb4FFHVCOHYxxTUVtiuG.jpg",
            "id": 487680,
            "adult": false,
            "backdrop_path": "/a86HspaEx3u1HzSBPBqxq3wnKLK.jpg",
            "original_language": "en",
            "original_title": "The Kitchen",
            "genre_ids": [
                28,
                80,
                18
            ],
            "title": "The Kitchen",
            "vote_average": 6.1,
            "overview": "An Irish mob story set in 1970s Hell's Kitchen. After the mobsters are sentenced to jail, their wives take their place — and do as good of a job, if not better.",
            "release_date": "2019-08-09"
        },
        {
            "popularity": 23.782,
            "id": 534259,
            "video": false,
            "vote_count": 59,
            "vote_average": 7.6,
            "title": "Blinded by the Light",
            "release_date": "2019-08-14",
            "original_language": "en",
            "original_title": "Blinded by the Light",
            "genre_ids": [
                18,
                35,
                10402
            ],
            "backdrop_path": "/5xVj9qDkZTALvIounsBdkqlLzH1.jpg",
            "adult": false,
            "overview": "In 1987, during the austere days of Thatcher’s Britain, a teenager learns to live life, understand his family, and find his own voice through the music of Bruce Springsteen.",
            "poster_path": "/vdWzIFpiUcV2uNGUrmgbtyNK2I0.jpg"
        },
        {
            "popularity": 17.902,
            "id": 451915,
            "video": false,
            "vote_count": 620,
            "vote_average": 7.6,
            "title": "Beautiful Boy",
            "release_date": "2018-10-12",
            "original_language": "en",
            "original_title": "Beautiful Boy",
            "genre_ids": [
                18
            ],
            "backdrop_path": "/bnhK1vjXdEROaHln33XFBV9T1pY.jpg",
            "adult": false,
            "overview": "After he and his first wife separate, journalist David Sheff struggles to help their teenage son, who goes from experimenting with drugs to becoming devastatingly addicted to methamphetamine.",
            "poster_path": "/xxWVLnkx9lPMqer70AZRR4OC3KS.jpg"
        },
        {
            "popularity": 23.703,
            "vote_count": 0,
            "video": false,
            "poster_path": "/7qOIheWBelehwe6gBVsSwufNVg.jpg",
            "id": 468592,
            "adult": false,
            "backdrop_path": "/sWkThxdRErptdzbXgi0W3IU7bDE.jpg",
            "original_language": "pt",
            "original_title": "Vitalina Varela",
            "genre_ids": [
                18
            ],
            "title": "Vitalina Varela",
            "vote_average": 0,
            "overview": "Suddenly, in the sumptuous darkness of a neighborhood haunted by solemn shadows, the deep red of bloody sheets. Vitalina Varela is too late; all she can do now is settle her husband’s affairs. She will mourn no unfortunates: facing bitter and fallen men, she resolves to rebuild the memory of a solid shared house in Cape Verde, blueprint by blueprint and wall by wall, fighting the sad reality of a life that could not be built under a decent roof in Portugal.",
            "release_date": "2019-09-28"
        },
        {
            "popularity": 16.423,
            "vote_count": 430,
            "video": false,
            "poster_path": "/cJ9aKlEgTLYtpYjNqin06YqJRUl.jpg",
            "id": 396461,
            "adult": false,
            "backdrop_path": "/smc5oE6iRdp4hguSPT3RHsyceQH.jpg",
            "original_language": "en",
            "original_title": "Under the Silver Lake",
            "genre_ids": [
                18,
                9648
            ],
            "title": "Under the Silver Lake",
            "vote_average": 6.4,
            "overview": "Young and disenchanted Sam meets a mysterious and beautiful woman who's swimming in his building's pool one night. When she suddenly vanishes the next morning, Sam embarks on a surreal quest across Los Angeles to decode the secret behind her disappearance, leading him into the murkiest depths of mystery, scandal and conspiracy.",
            "release_date": "2019-04-19"
        },
        {
            "popularity": 15.299,
            "vote_count": 338,
            "video": false,
            "poster_path": "/cMlueArJXXwZbeLpb4NhC3pxmBk.jpg",
            "id": 519010,
            "adult": false,
            "backdrop_path": "/AbOBS0vEADdbZ5BvehUIpd55N68.jpg",
            "original_language": "es",
            "original_title": "Dolor y gloria",
            "genre_ids": [
                18
            ],
            "title": "Pain and Glory",
            "vote_average": 7.6,
            "overview": "Salvador Mallo, a filmmaker in the twilight of his career, remembers his life: his mother, his lovers, the actors he worked with. The sixties in a small village in Valencia, the eighties in Madrid, the present, when he feels an immeasurable emptiness, facing his mortality, the incapability of continuing filming, the impossibility of separating creation from his own life. The need of narrating his past can be his salvation.",
            "release_date": "2019-10-04"
        },
        {
            "popularity": 16.23,
            "vote_count": 79,
            "video": false,
            "poster_path": "/fDB2KOPyy7gMXRA8Jt2WHrjlnLj.jpg",
            "id": 513045,
            "adult": false,
            "backdrop_path": "/xgfn98c2UzvFWP6MXDzytearmQ3.jpg",
            "original_language": "en",
            "original_title": "Stuber",
            "genre_ids": [
                28,
                35
            ],
            "title": "Stuber",
            "vote_average": 6.7,
            "overview": "After crashing his car, a cop who's recovering from eye surgery recruits an Uber driver to help him catch a heroin dealer. The mismatched pair soon find themselves in for a wild day of stakeouts and shootouts as they encounter the city's seedy side.",
            "release_date": "2019-07-12"
        },
        {
            "popularity": 11.712,
            "vote_count": 23,
            "video": false,
            "poster_path": "/qyQcRGvdW3VtxHR4fSDgPOePEip.jpg",
            "id": 463257,
            "adult": false,
            "backdrop_path": "/4NJ9Wbib4YfvnZyyvV8WSLOAQUh.jpg",
            "original_language": "en",
            "original_title": "The Peanut Butter Falcon",
            "genre_ids": [
                12,
                35,
                18
            ],
            "title": "The Peanut Butter Falcon",
            "vote_average": 7.7,
            "overview": "A down-on-his-luck crab fisherman embarks on a journey to get a young man with Down syndrome to a professional wrestling school in rural North Carolina and away from the retirement home where he’s lived most of his life.",
            "release_date": "2019-08-09"
        },
        {
            "popularity": 20.323,
            "vote_count": 255,
            "video": false,
            "poster_path": "/A7eYO3t7oZQdfJj5KlJBI7GhT9H.jpg",
            "id": 468224,
            "adult": false,
            "backdrop_path": "/msOjpu9wigi6n1Xa51MeLcBue88.jpg",
            "original_language": "en",
            "original_title": "Tolkien",
            "genre_ids": [
                18,
                36,
                10749,
                10752
            ],
            "title": "Tolkien",
            "vote_average": 6.8,
            "overview": "England, early 20th century. The future writer and philologist John Ronald Reuel Tolkien (1892-1973) and three of his schoolmates create a strong bond between them as they share the same passion for literature and art, a true fellowship that strengthens as they grow up, but the outbreak of World War I threatens to shatter it.",
            "release_date": "2019-05-10"
        }
    ],
    "page": 2,
    "total_results": 292,
    "dates": {
        "maximum": "2019-09-30",
        "minimum": "2019-09-13"
    },
    "total_pages": 15
}